module gitlab.com/Prosp3r/shipping

go 1.12

require (
	cloud.google.com/go v0.39.0 // indirect
	github.com/EwanValentine/shippy-service-consignment v0.0.0-20190416075237-11e19626e7a1
	github.com/golang/mock v1.3.1 // indirect
	github.com/golang/protobuf v1.3.1
	github.com/google/go-cmp v0.3.0 // indirect
	github.com/google/pprof v0.0.0-20190515194954-54271f7e092f // indirect
	golang.org/x/crypto v0.0.0-20190513172903-22d7a77e9e5f // indirect
	golang.org/x/exp v0.0.0-20190510132918-efd6b22b2522 // indirect
	golang.org/x/image v0.0.0-20190523035834-f03afa92d3ff // indirect
	golang.org/x/lint v0.0.0-20190409202823-959b441ac422 // indirect
	golang.org/x/mobile v0.0.0-20190509164839-32b2708ab171 // indirect
	golang.org/x/net v0.0.0-20190522155817-f3200d17e092 // indirect
	golang.org/x/oauth2 v0.0.0-20190523182746-aaccbc9213b0 // indirect
	golang.org/x/sys v0.0.0-20190529115539-cc920278c2cc // indirect
	golang.org/x/text v0.3.2 // indirect
	golang.org/x/tools v0.0.0-20190529010454-aa71c3f32488 // indirect
	google.golang.org/appengine v1.6.0 // indirect
	google.golang.org/genproto v0.0.0-20190522204451-c2c4e71fbf69 // indirect
	google.golang.org/grpc v1.21.0
	honnef.co/go/tools v0.0.0-20190523083050-ea95bdfd59fc // indirect
)
